Homework 4
…
Rows: 3,672,256
Columns: 4
$ observation_id <dbl> 1, 1, 1, 1, 1, 1, 1, 1, 1, 1, 1, 1, 1, 1, 1, 1, 1, 1, 1…
$ x              <dbl> 1, 2, 3, 4, 5, 6, 7, 8, 9, 10, 11, 12, 13, 14, 15, 16, …
$ y              <dbl> 28, 28, 28, 28, 28, 28, 28, 28, 28, 28, 28, 28, 28, 28,…
$ value          <dbl> 0.00000000, 0.00000000, 0.00000000, 0.00000000, 0.00000…

first_img <- one_image_data_tidy |>
  filter(observation_id == first_img_id)

first_img

# A tibble: 784 × 4
   observation_id     x     y value
            <dbl> <dbl> <dbl> <dbl>
 1              1     1    28     0
 2              1     2    28     0
 3              1     3    28     0
 4              1     4    28     0
 5              1     5    28     0
 6              1     6    28     0
 7              1     7    28     0
 8              1     8    28     0
 9              1     9    28     0
10              1    10    28     0
# ℹ 774 more rows
…
