Homework 6
…
  tibble(
    x = x_coords,
    y = y_coords,
    value = pixel_values
  )
}

Use this function to create include a new list column in images_df containing the tidy tibble for each image.

img <- readTIFF("shoes/002054L_20171027_2_1_1_csafe_tpashek.tiff")
tidy_shoe_image(img)

# A tibble: 359,722 × 3
       x     y value
   <int> <int> <dbl>
 1     1   913     1
 2     1   912     1
 3     1   911     1
 4     1   910     1
 5     1   909     1
 6     1   908     1
 7     1   907     1
 8     1   906     1
 9     1   905     1
10     1   904     1
# ℹ 359,712 more rows

images_df <- images_df |> 
  mutate(tidy = lapply(image_data, tidy_shoe_image))

images_df$tidy[1][[1]]

# A tibble: 359,722 × 3
       x     y value
   <int> <int> <dbl>
 1     1   913     1
 2     1   912     1
 3     1   911     1
 4     1   910     1
 5     1   909     1
 6     1   908     1
 7     1   907     1
 8     1   906     1
 9     1   905     1
10     1   904     1
# ℹ 359,712 more rows
…
Use the game_of_thrones tibble to create a new tibble called got_allegiances with two columns: character_name and allegiance. It should have one row for each allegiance that each character has.

got_allegiances <- game_of_thrones |>
  unnest_wider(got_chars) |>
  select(name, allegiances) |>
  rename(character_name = name) |>
  unnest_longer(allegiances)  |>
  rename(allegiance = allegiances) |>
  group_by(character_name)

Print out the entire data frame.

got_allegiances

# A tibble: 33 × 2
# Groups:   character_name [25]
   character_name     allegiance                       
   <chr>              <chr>                            
 1 Theon Greyjoy      House Greyjoy of Pyke            
 2 Tyrion Lannister   House Lannister of Casterly Rock 
 3 Victarion Greyjoy  House Greyjoy of Pyke            
 4 Areo Hotah         House Nymeros Martell of Sunspear
 5 Arianne Martell    House Nymeros Martell of Sunspear
 6 Daenerys Targaryen House Targaryen of King's Landing
 7 Davos Seaworth     House Baratheon of Dragonstone   
 8 Davos Seaworth     House Seaworth of Cape Wrath     
 9 Arya Stark         House Stark of Winterfell        
10 Arys Oakheart      House Oakheart of Old Oak        
# ℹ 23 more rows
…
character_seasons <- game_of_thrones |>
  unnest_wider(got_chars) |>
  select(name, tvSeries) |>
  unnest(tvSeries) |>
  mutate(tvSeries = as.numeric(gsub("\\D", "", tvSeries))) |>
  group_by(name) |>
  summarise(first_appearance = min(tvSeries),
            number_of_seasons = ifelse(all(is.na(tvSeries)), 0, n()))

Print all rows of the data frame.

character_seasons

# A tibble: 30 × 3
   name             first_appearance number_of_seasons
   <chr>                       <dbl>             <dbl>
 1 Aeron Greyjoy                   6                 1
 2 Areo Hotah                      5                 2
 3 Arianne Martell                NA                 0
 4 Arya Stark                      1                 6
 5 Arys Oakheart                  NA                 0
 6 Asha Greyjoy                    2                 3
 7 Barristan Selmy                 1                 4
 8 Brandon Stark                   1                 5
 9 Brienne of Tarth                2                 5
10 Catelyn Stark                   1                 3
# ℹ 20 more rows
