Homework 3
…
images <- data.frame(
  x = rep(rep(1:28, each = 28), times = 9),
  y = rev(rep(rep(1:28, times = 28), times = 9)),
  value = values,
  digit = rep(1:9, each = 784)
)

images <- images |>
  group_by(digit, x) |>
  arrange(y)

images

# A tibble: 7,056 × 4
# Groups:   digit, x [252]
       x     y value digit
   <int> <int> <dbl> <int>
 1     1     1     0     1
 2     2     1     0     1
 3     3     1     0     1
 4     4     1     0     1
 5     5     1     0     1
 6     6     1     0     1
 7     7     1     0     1
 8     8     1     0     1
 9     9     1     0     1
10    10     1     0     1
# ℹ 7,046 more rows
…
raw_data |>
  glimpse()

Rows: 2,704
Columns: 4
$ State_arrived     <chr> "Alabama", "Alabama", "Alabama", "Alabama", "Alabama…
$ state_departed    <chr> "Alabama", "Alaska", "Arizona", "Arkansas", "Califor…
$ movement_estimate <int> NA, 1105, 904, 813, 3690, 2042, 705, 0, 248, 15519, …
$ movement_moe      <int> NA, 776, 591, 569, 1160, 941, 679, 206, 256, 3848, 2…

raw_data

# A tibble: 2,704 × 4
   State_arrived state_departed       movement_estimate movement_moe
   <chr>         <chr>                            <int>        <int>
 1 Alabama       Alabama                             NA           NA
 2 Alabama       Alaska                            1105          776
 3 Alabama       Arizona                            904          591
 4 Alabama       Arkansas                           813          569
 5 Alabama       California                        3690         1160
 6 Alabama       Colorado                          2042          941
 7 Alabama       Connecticut                        705          679
 8 Alabama       Delaware                             0          206
 9 Alabama       District of Columbia               248          256
10 Alabama       Florida                          15519         3848
# ℹ 2,694 more rows
…
