Homework 2
…
To eliminate the cases discovered in (iii), create a new data frame named contestants_fixed.

contestants_fixed should be identical to contestants, except it should contain at most one performer for each country-year combination. If more there is more than one performer for a country-year combination in contestants, contestants_fixed should keep only the one with the highest running_final score.

Hint: if using a slice_max verb, it may be helpful to include a with_ties = FALSE argument.

contestants_fixed <- contestants |>
  group_by(to_country, year) |>
  slice_max(order_by = running_final, n = 1, with_ties = FALSE) |>
  ungroup()

contestants_fixed

# A tibble: 1,714 × 21
    year to_country_id to_country performer           song  place_contest sf_num
   <dbl> <chr>         <chr>      <chr>               <chr>         <dbl>  <dbl>
 1  2004 al            Albania    Anjeza Shahini      The …             7      0
 2  2005 al            Albania    Ledina Celo         Tomo…            16     NA
 3  2006 Albania       Albania    Luiz Ejlli          Zjar…            28      0
 4  2007 Albania       Albania    Aida & Frederik Nd… Hear…            31      0
 5  2008 al            Albania    Olta Boka           Zemr…            17      2
 6  2009 al            Albania    Kejsi Tola          Carr…            17      2
 7  2010 al            Albania    Juliana Pasha       It's…            16      1
 8  2011 Albania       Albania    Aurela Gaçe         Feel…            30      1
 9  2012 al            Albania    Rona Nishliu        Suus              5      1
10  2013 Albania       Albania    Adrian Lulgjuraj &… Iden…            34      2
# ℹ 1,704 more rows
# ℹ 14 more variables: running_final <dbl>, running_sf <dbl>,
#   place_final <dbl>, points_final <dbl>, place_sf <dbl>, points_sf <dbl>,
#   points_tele_final <dbl>, points_jury_final <dbl>, points_tele_sf <dbl>,
#   points_jury_sf <dbl>, composers <chr>, lyricists <chr>, lyrics <chr>,
#   youtube_url <chr>
…
each column is a country, and

the cell values are the number of points each country got in the final (i.e. the variable named points_final). If a country didn’t participate in the final, the cell value should be NA.

contestants_fixed_wider <- contestants_fixed |>
  select(to_country, year, points_final) |>
  pivot_wider(
    names_from = to_country, 
    values_from = points_final
  )

contestants_fixed_wider

# A tibble: 68 × 55
    year Albania Andorra Armenia Australia Austria Azerbaijan Belarus Belgium
   <dbl>   <dbl>   <dbl>   <dbl>     <dbl>   <dbl>      <dbl>   <dbl>   <dbl>
 1  2004     106      NA      NA        NA       9         NA      NA       7
 2  2005      53      NA      NA        NA      NA         NA      NA      NA
 3  2006      NA      NA     129        NA      NA         NA      NA      NA
 4  2007      NA      NA     138        NA      NA         NA     145      NA
 5  2008      55      NA     199        NA      NA        132      NA      NA
 6  2009      48      NA      92        NA      NA        207      NA      NA
 7  2010      62      NA     141        NA      NA        145      18     143
 8  2011      NA      NA      NA        NA      64        221      NA      NA
 9  2012     146      NA      NA        NA      NA        150      NA      NA
10  2013      NA      NA      41        NA      NA        234      48      71
# ℹ 58 more rows
# ℹ 46 more variables: `Bosnia & Herzegovina` <dbl>, Bulgaria <dbl>,
#   Croatia <dbl>, Cyprus <dbl>, `Czech Republic` <dbl>, Czechia <dbl>,
#   Denmark <dbl>, Estonia <dbl>, Finland <dbl>, France <dbl>, Georgia <dbl>,
#   Germany <dbl>, Greece <dbl>, Hungary <dbl>, Iceland <dbl>, Ireland <dbl>,
#   Israel <dbl>, Italy <dbl>, Latvia <dbl>, Lithuania <dbl>, Luxembourg <dbl>,
#   Malta <dbl>, Moldova <dbl>, Monaco <dbl>, Montenegro <dbl>, …
…
tele_points and jury_points should be the sum of these values across the three rounds: final, semi-final-1, and semi-final-2.

votes_complete_agg <- votes_complete |>
  group_by(year, from_country, to_country) |>
  summarise(
    tele_points = sum(tele_points, na.rm = TRUE),
    jury_points = sum(jury_points, na.rm = TRUE)
  )

`summarise()` has grouped output by 'year', 'from_country'. You can override
using the `.groups` argument.

votes_complete_agg

# A tibble: 9,245 × 5
# Groups:   year, from_country [284]
    year from_country to_country tele_points jury_points
   <dbl> <chr>        <chr>            <dbl>       <dbl>
 1  2016 Albania      Albania              0           0
 2  2016 Albania      Armenia              2           0
 3  2016 Albania      Australia           18          22
 4  2016 Albania      Austria              0           0
 5  2016 Albania      Azerbaijan           0           0
 6  2016 Albania      Belarus              0           0
 7  2016 Albania      Belgium              8           0
 8  2016 Albania      Bulgaria            15          11
 9  2016 Albania      Croatia              0           0
10  2016 Albania      Cyprus               0           0
# ℹ 9,235 more rows
…
Over the years, San Marino (27), Australia (22), Azerbaijan (21) and Isreal (21) sent the most jury points to Poland.

Question (iii). 10 points.

Consider the countries Sweden, Denmark, and Norway.

Transform votes_complete_agg into a data frame that can be used to create the following faceted plot.

scandinavia <- votes_complete_agg |>
  select(to_country, from_country, year, jury_points, tele_points) |>
  filter(to_country == "Sweden" | to_country == "Denmark" | to_country == "Norway") |>
  filter(from_country == "Sweden" | from_country == "Denmark" | from_country == "Norway")
scandinavia

# A tibble: 55 × 5
# Groups:   year, from_country [21]
   to_country from_country  year jury_points tele_points
   <chr>      <chr>        <dbl>       <dbl>       <dbl>
 1 Denmark    Denmark       2016           0           0
 2 Norway     Denmark       2016           6          10
 3 Sweden     Denmark       2016           4          12
 4 Denmark    Norway        2016           0           5
 5 Norway     Norway        2016           0           0
 6 Sweden     Norway        2016           0           7
 7 Sweden     Sweden        2016           0           0
 8 Denmark    Denmark       2017           0           0
 9 Norway     Denmark       2017          18          17
10 Sweden     Denmark       2017          12          12
# ℹ 45 more rows
…
Part B

Question (i). 6 points.

Consider the data in tmax_tmin_prcp.Rda from 1971 to 2017. Is there any pattern to which days are missing temperatures? What do you think is causing this?

missing1 <- tmax_tmin_prcp |>
  filter(is.na(tmax) | is.na(tmin)) |>
  filter(year >= 1971 & year < 2018)
missing1

# A tibble: 142 × 8
     Day Month  year City         State  tmax  tmin  prcp
   <dbl> <chr> <dbl> <chr>        <chr> <dbl> <dbl> <dbl>
 1    29 02     1971 Pittsburgh   PA       NA    NA    NA
 2    29 02     1971 Philadelphia PA       NA    NA    NA
 3    29 02     1971 Erie         PA       NA    NA    NA
 4    29 02     1971 Cleveland    OH       NA    NA    NA
 5    29 02     1973 Pittsburgh   PA       NA    NA    NA
 6    29 02     1973 Philadelphia PA       NA    NA    NA
 7    29 02     1973 Erie         PA       NA    NA    NA
 8    29 02     1973 Cleveland    OH       NA    NA    NA
 9    29 02     1974 Pittsburgh   PA       NA    NA    NA
10    29 02     1974 Philadelphia PA       NA    NA    NA
# ℹ 132 more rows

missing2 <- missing1 |>
  filter(year > 1971)
missing2

# A tibble: 138 × 8
     Day Month  year City         State  tmax  tmin  prcp
   <dbl> <chr> <dbl> <chr>        <chr> <dbl> <dbl> <dbl>
 1    29 02     1973 Pittsburgh   PA       NA    NA    NA
 2    29 02     1973 Philadelphia PA       NA    NA    NA
 3    29 02     1973 Erie         PA       NA    NA    NA
 4    29 02     1973 Cleveland    OH       NA    NA    NA
 5    29 02     1974 Pittsburgh   PA       NA    NA    NA
 6    29 02     1974 Philadelphia PA       NA    NA    NA
 7    29 02     1974 Erie         PA       NA    NA    NA
 8    29 02     1974 Cleveland    OH       NA    NA    NA
 9    29 02     1975 Pittsburgh   PA       NA    NA    NA
10    29 02     1975 Philadelphia PA       NA    NA    NA
# ℹ 128 more rows
…
